<svg id="el_iKtWTA7I-" xmlns="http://www.w3.org/2000/svg" viewBox="0 0 800 600"><style>@-webkit-keyframes kf_el_8CM_F9S9Cl_an_Yy1FW3Vic{0%{-webkit-transform: translate(369px, 213px) rotate(0deg) translate(-369px, -213px);transform: translate(369px, 213px) rotate(0deg) translate(-369px, -213px);}81.48%{-webkit-transform: translate(369px, 213px) rotate(0deg) translate(-369px, -213px);transform: translate(369px, 213px) rotate(0deg) translate(-369px, -213px);}100%{-webkit-transform: translate(369px, 213px) rotate(0deg) translate(-369px, -213px);transform: translate(369px, 213px) rotate(0deg) translate(-369px, -213px);}}@keyframes kf_el_8CM_F9S9Cl_an_Yy1FW3Vic{0%{-webkit-transform: translate(369px, 213px) rotate(0deg) translate(-369px, -213px);transform: translate(369px, 213px) rotate(0deg) translate(-369px, -213px);}81.48%{-webkit-transform: translate(369px, 213px) rotate(0deg) translate(-369px, -213px);transform: translate(369px, 213px) rotate(0deg) translate(-369px, -213px);}100%{-webkit-transform: translate(369px, 213px) rotate(0deg) translate(-369px, -213px);transform: translate(369px, 213px) rotate(0deg) translate(-369px, -213px);}}@-webkit-keyframes kf_el_8CM_F9S9Cl_an_VSWZpttbB{0%{opacity: 0;}81.48%{opacity: 0;}85.19%{opacity: 1;}100%{opacity: 1;}}@keyframes kf_el_8CM_F9S9Cl_an_VSWZpttbB{0%{opacity: 0;}81.48%{opacity: 0;}85.19%{opacity: 1;}100%{opacity: 1;}}@-webkit-keyframes kf_el_k3qS7Weagi_an_Lg3FsyIPC{0%{-webkit-transform: translate(431px, 152.57000732421875px) rotate(0deg) translate(-431px, -152.57000732421875px);transform: translate(431px, 152.57000732421875px) rotate(0deg) translate(-431px, -152.57000732421875px);}81.48%{-webkit-transform: translate(431px, 152.57000732421875px) rotate(0deg) translate(-431px, -152.57000732421875px);transform: translate(431px, 152.57000732421875px) rotate(0deg) translate(-431px, -152.57000732421875px);}100%{-webkit-transform: translate(431px, 152.57000732421875px) rotate(0deg) translate(-431px, -152.57000732421875px);transform: translate(431px, 152.57000732421875px) rotate(0deg) translate(-431px, -152.57000732421875px);}}@keyframes kf_el_k3qS7Weagi_an_Lg3FsyIPC{0%{-webkit-transform: translate(431px, 152.57000732421875px) rotate(0deg) translate(-431px, -152.57000732421875px);transform: translate(431px, 152.57000732421875px) rotate(0deg) translate(-431px, -152.57000732421875px);}81.48%{-webkit-transform: translate(431px, 152.57000732421875px) rotate(0deg) translate(-431px, -152.57000732421875px);transform: translate(431px, 152.57000732421875px) rotate(0deg) translate(-431px, -152.57000732421875px);}100%{-webkit-transform: translate(431px, 152.57000732421875px) rotate(0deg) translate(-431px, -152.57000732421875px);transform: translate(431px, 152.57000732421875px) rotate(0deg) translate(-431px, -152.57000732421875px);}}@-webkit-keyframes kf_el_CZ1GNvGb1f_an_Robq4XtlI{81.48%{opacity: 1;}85.19%{opacity: 0;}0%{opacity: 1;}100%{opacity: 0;}}@keyframes kf_el_CZ1GNvGb1f_an_Robq4XtlI{81.48%{opacity: 1;}85.19%{opacity: 0;}0%{opacity: 1;}100%{opacity: 0;}}@-webkit-keyframes kf_el_1QlFYvHjBY_an_C-yoELgd9{0%{opacity: 1;}7.41%{opacity: 0;}19.75%{opacity: 1;}39.51%{opacity: 1;}41.98%{opacity: 0;}45.68%{opacity: 1;}81.48%{opacity: 1;}85.19%{opacity: 0;}100%{opacity: 0;}}@keyframes kf_el_1QlFYvHjBY_an_C-yoELgd9{0%{opacity: 1;}7.41%{opacity: 0;}19.75%{opacity: 1;}39.51%{opacity: 1;}41.98%{opacity: 0;}45.68%{opacity: 1;}81.48%{opacity: 1;}85.19%{opacity: 0;}100%{opacity: 0;}}@-webkit-keyframes kf_el_yWLEkiOMXO_an_kCtKh_Z9a{81.48%{-webkit-transform: translate(330.5679931640625px, 144.02999877929688px) translate(-330.5679931640625px, -144.02999877929688px) translate(0px, 0px);transform: translate(330.5679931640625px, 144.02999877929688px) translate(-330.5679931640625px, -144.02999877929688px) translate(0px, 0px);}85.19%{-webkit-transform: translate(330.5679931640625px, 144.02999877929688px) translate(-330.5679931640625px, -144.02999877929688px) translate(0px, 0px);transform: translate(330.5679931640625px, 144.02999877929688px) translate(-330.5679931640625px, -144.02999877929688px) translate(0px, 0px);}0%{-webkit-transform: translate(330.5679931640625px, 144.02999877929688px) translate(-330.5679931640625px, -144.02999877929688px) translate(0px, 0px);transform: translate(330.5679931640625px, 144.02999877929688px) translate(-330.5679931640625px, -144.02999877929688px) translate(0px, 0px);}100%{-webkit-transform: translate(330.5679931640625px, 144.02999877929688px) translate(-330.5679931640625px, -144.02999877929688px) translate(0px, 0px);transform: translate(330.5679931640625px, 144.02999877929688px) translate(-330.5679931640625px, -144.02999877929688px) translate(0px, 0px);}}@keyframes kf_el_yWLEkiOMXO_an_kCtKh_Z9a{81.48%{-webkit-transform: translate(330.5679931640625px, 144.02999877929688px) translate(-330.5679931640625px, -144.02999877929688px) translate(0px, 0px);transform: translate(330.5679931640625px, 144.02999877929688px) translate(-330.5679931640625px, -144.02999877929688px) translate(0px, 0px);}85.19%{-webkit-transform: translate(330.5679931640625px, 144.02999877929688px) translate(-330.5679931640625px, -144.02999877929688px) translate(0px, 0px);transform: translate(330.5679931640625px, 144.02999877929688px) translate(-330.5679931640625px, -144.02999877929688px) translate(0px, 0px);}0%{-webkit-transform: translate(330.5679931640625px, 144.02999877929688px) translate(-330.5679931640625px, -144.02999877929688px) translate(0px, 0px);transform: translate(330.5679931640625px, 144.02999877929688px) translate(-330.5679931640625px, -144.02999877929688px) translate(0px, 0px);}100%{-webkit-transform: translate(330.5679931640625px, 144.02999877929688px) translate(-330.5679931640625px, -144.02999877929688px) translate(0px, 0px);transform: translate(330.5679931640625px, 144.02999877929688px) translate(-330.5679931640625px, -144.02999877929688px) translate(0px, 0px);}}@-webkit-keyframes kf_el_yWLEkiOMXO_an_6-hrOyNCm{0%{-webkit-transform: translate(330.5679931640625px, 144.02999877929688px) rotate(0deg) translate(-330.5679931640625px, -144.02999877929688px);transform: translate(330.5679931640625px, 144.02999877929688px) rotate(0deg) translate(-330.5679931640625px, -144.02999877929688px);}81.48%{-webkit-transform: translate(330.5679931640625px, 144.02999877929688px) rotate(0deg) translate(-330.5679931640625px, -144.02999877929688px);transform: translate(330.5679931640625px, 144.02999877929688px) rotate(0deg) translate(-330.5679931640625px, -144.02999877929688px);}100%{-webkit-transform: translate(330.5679931640625px, 144.02999877929688px) rotate(0deg) translate(-330.5679931640625px, -144.02999877929688px);transform: translate(330.5679931640625px, 144.02999877929688px) rotate(0deg) translate(-330.5679931640625px, -144.02999877929688px);}}@keyframes kf_el_yWLEkiOMXO_an_6-hrOyNCm{0%{-webkit-transform: translate(330.5679931640625px, 144.02999877929688px) rotate(0deg) translate(-330.5679931640625px, -144.02999877929688px);transform: translate(330.5679931640625px, 144.02999877929688px) rotate(0deg) translate(-330.5679931640625px, -144.02999877929688px);}81.48%{-webkit-transform: translate(330.5679931640625px, 144.02999877929688px) rotate(0deg) translate(-330.5679931640625px, -144.02999877929688px);transform: translate(330.5679931640625px, 144.02999877929688px) rotate(0deg) translate(-330.5679931640625px, -144.02999877929688px);}100%{-webkit-transform: translate(330.5679931640625px, 144.02999877929688px) rotate(0deg) translate(-330.5679931640625px, -144.02999877929688px);transform: translate(330.5679931640625px, 144.02999877929688px) rotate(0deg) translate(-330.5679931640625px, -144.02999877929688px);}}@-webkit-keyframes kf_el_yWLEkiOMXO_an_CsM-mypF1{0%{opacity: 1;}7.41%{opacity: 0;}19.75%{opacity: 1;}39.51%{opacity: 1;}41.98%{opacity: 0;}45.68%{opacity: 1;}85.19%{opacity: 1;}100%{opacity: 1;}}@keyframes kf_el_yWLEkiOMXO_an_CsM-mypF1{0%{opacity: 1;}7.41%{opacity: 0;}19.75%{opacity: 1;}39.51%{opacity: 1;}41.98%{opacity: 0;}45.68%{opacity: 1;}85.19%{opacity: 1;}100%{opacity: 1;}}@-webkit-keyframes kf_el_oFqYpyT8yY_an_NT0l7yLea{41.98%{opacity: 1;}81.48%{opacity: 1;}85.19%{opacity: 0;}0%{opacity: 1;}100%{opacity: 0;}}@keyframes kf_el_oFqYpyT8yY_an_NT0l7yLea{41.98%{opacity: 1;}81.48%{opacity: 1;}85.19%{opacity: 0;}0%{opacity: 1;}100%{opacity: 0;}}@-webkit-keyframes kf_el_hmOP0U0F1l_an_qJLzzEUZV{76.54%{-webkit-transform: translate(377.6642303466797px, 146.4940071105957px) translate(-377.6642303466797px, -146.4940071105957px) translate(0px, 0px);transform: translate(377.6642303466797px, 146.4940071105957px) translate(-377.6642303466797px, -146.4940071105957px) translate(0px, 0px);}81.48%{-webkit-transform: translate(377.6642303466797px, 146.4940071105957px) translate(-377.6642303466797px, -146.4940071105957px) translate(10px, 0px);transform: translate(377.6642303466797px, 146.4940071105957px) translate(-377.6642303466797px, -146.4940071105957px) translate(10px, 0px);}0%{-webkit-transform: translate(377.6642303466797px, 146.4940071105957px) translate(-377.6642303466797px, -146.4940071105957px) translate(0px, 0px);transform: translate(377.6642303466797px, 146.4940071105957px) translate(-377.6642303466797px, -146.4940071105957px) translate(0px, 0px);}100%{-webkit-transform: translate(377.6642303466797px, 146.4940071105957px) translate(-377.6642303466797px, -146.4940071105957px) translate(10px, 0px);transform: translate(377.6642303466797px, 146.4940071105957px) translate(-377.6642303466797px, -146.4940071105957px) translate(10px, 0px);}}@keyframes kf_el_hmOP0U0F1l_an_qJLzzEUZV{76.54%{-webkit-transform: translate(377.6642303466797px, 146.4940071105957px) translate(-377.6642303466797px, -146.4940071105957px) translate(0px, 0px);transform: translate(377.6642303466797px, 146.4940071105957px) translate(-377.6642303466797px, -146.4940071105957px) translate(0px, 0px);}81.48%{-webkit-transform: translate(377.6642303466797px, 146.4940071105957px) translate(-377.6642303466797px, -146.4940071105957px) translate(10px, 0px);transform: translate(377.6642303466797px, 146.4940071105957px) translate(-377.6642303466797px, -146.4940071105957px) translate(10px, 0px);}0%{-webkit-transform: translate(377.6642303466797px, 146.4940071105957px) translate(-377.6642303466797px, -146.4940071105957px) translate(0px, 0px);transform: translate(377.6642303466797px, 146.4940071105957px) translate(-377.6642303466797px, -146.4940071105957px) translate(0px, 0px);}100%{-webkit-transform: translate(377.6642303466797px, 146.4940071105957px) translate(-377.6642303466797px, -146.4940071105957px) translate(10px, 0px);transform: translate(377.6642303466797px, 146.4940071105957px) translate(-377.6642303466797px, -146.4940071105957px) translate(10px, 0px);}}@-webkit-keyframes kf_el_hmOP0U0F1l_an_wcAB_au8O{0%{-webkit-transform: translate(377.6642303466797px, 146.4940071105957px) rotate(0deg) translate(-377.6642303466797px, -146.4940071105957px);transform: translate(377.6642303466797px, 146.4940071105957px) rotate(0deg) translate(-377.6642303466797px, -146.4940071105957px);}76.54%{-webkit-transform: translate(377.6642303466797px, 146.4940071105957px) rotate(0deg) translate(-377.6642303466797px, -146.4940071105957px);transform: translate(377.6642303466797px, 146.4940071105957px) rotate(0deg) translate(-377.6642303466797px, -146.4940071105957px);}81.48%{-webkit-transform: translate(377.6642303466797px, 146.4940071105957px) rotate(10deg) translate(-377.6642303466797px, -146.4940071105957px);transform: translate(377.6642303466797px, 146.4940071105957px) rotate(10deg) translate(-377.6642303466797px, -146.4940071105957px);}100%{-webkit-transform: translate(377.6642303466797px, 146.4940071105957px) rotate(10deg) translate(-377.6642303466797px, -146.4940071105957px);transform: translate(377.6642303466797px, 146.4940071105957px) rotate(10deg) translate(-377.6642303466797px, -146.4940071105957px);}}@keyframes kf_el_hmOP0U0F1l_an_wcAB_au8O{0%{-webkit-transform: translate(377.6642303466797px, 146.4940071105957px) rotate(0deg) translate(-377.6642303466797px, -146.4940071105957px);transform: translate(377.6642303466797px, 146.4940071105957px) rotate(0deg) translate(-377.6642303466797px, -146.4940071105957px);}76.54%{-webkit-transform: translate(377.6642303466797px, 146.4940071105957px) rotate(0deg) translate(-377.6642303466797px, -146.4940071105957px);transform: translate(377.6642303466797px, 146.4940071105957px) rotate(0deg) translate(-377.6642303466797px, -146.4940071105957px);}81.48%{-webkit-transform: translate(377.6642303466797px, 146.4940071105957px) rotate(10deg) translate(-377.6642303466797px, -146.4940071105957px);transform: translate(377.6642303466797px, 146.4940071105957px) rotate(10deg) translate(-377.6642303466797px, -146.4940071105957px);}100%{-webkit-transform: translate(377.6642303466797px, 146.4940071105957px) rotate(10deg) translate(-377.6642303466797px, -146.4940071105957px);transform: translate(377.6642303466797px, 146.4940071105957px) rotate(10deg) translate(-377.6642303466797px, -146.4940071105957px);}}@-webkit-keyframes kf_el_a4NWt72hGm_an_aqQGPTNgu{0%{-webkit-transform: translate(383.32464599609375px, 191.26849365234375px) rotate(0deg) translate(-383.32464599609375px, -191.26849365234375px);transform: translate(383.32464599609375px, 191.26849365234375px) rotate(0deg) translate(-383.32464599609375px, -191.26849365234375px);}76.54%{-webkit-transform: translate(383.32464599609375px, 191.26849365234375px) rotate(0deg) translate(-383.32464599609375px, -191.26849365234375px);transform: translate(383.32464599609375px, 191.26849365234375px) rotate(0deg) translate(-383.32464599609375px, -191.26849365234375px);}81.48%{-webkit-transform: translate(383.32464599609375px, 191.26849365234375px) rotate(10deg) translate(-383.32464599609375px, -191.26849365234375px);transform: translate(383.32464599609375px, 191.26849365234375px) rotate(10deg) translate(-383.32464599609375px, -191.26849365234375px);}100%{-webkit-transform: translate(383.32464599609375px, 191.26849365234375px) rotate(10deg) translate(-383.32464599609375px, -191.26849365234375px);transform: translate(383.32464599609375px, 191.26849365234375px) rotate(10deg) translate(-383.32464599609375px, -191.26849365234375px);}}@keyframes kf_el_a4NWt72hGm_an_aqQGPTNgu{0%{-webkit-transform: translate(383.32464599609375px, 191.26849365234375px) rotate(0deg) translate(-383.32464599609375px, -191.26849365234375px);transform: translate(383.32464599609375px, 191.26849365234375px) rotate(0deg) translate(-383.32464599609375px, -191.26849365234375px);}76.54%{-webkit-transform: translate(383.32464599609375px, 191.26849365234375px) rotate(0deg) translate(-383.32464599609375px, -191.26849365234375px);transform: translate(383.32464599609375px, 191.26849365234375px) rotate(0deg) translate(-383.32464599609375px, -191.26849365234375px);}81.48%{-webkit-transform: translate(383.32464599609375px, 191.26849365234375px) rotate(10deg) translate(-383.32464599609375px, -191.26849365234375px);transform: translate(383.32464599609375px, 191.26849365234375px) rotate(10deg) translate(-383.32464599609375px, -191.26849365234375px);}100%{-webkit-transform: translate(383.32464599609375px, 191.26849365234375px) rotate(10deg) translate(-383.32464599609375px, -191.26849365234375px);transform: translate(383.32464599609375px, 191.26849365234375px) rotate(10deg) translate(-383.32464599609375px, -191.26849365234375px);}}#el_iKtWTA7I- *{-webkit-animation-duration: 2.7s;animation-duration: 2.7s;-webkit-animation-iteration-count: infinite;animation-iteration-count: infinite;-webkit-animation-timing-function: cubic-bezier(0, 0, 1, 1);animation-timing-function: cubic-bezier(0, 0, 1, 1);}#el_a4NWt72hGm{fill: none;stroke: #000;stroke-width: 3px;fill-rule: evenodd;}#el_hmOP0U0F1l{fill-rule: evenodd;}#el_oFqYpyT8yY{fill-rule: evenodd;-webkit-animation-fill-mode: backwards;animation-fill-mode: backwards;opacity: 1;-webkit-animation-name: kf_el_oFqYpyT8yY_an_NT0l7yLea;animation-name: kf_el_oFqYpyT8yY_an_NT0l7yLea;-webkit-animation-timing-function: cubic-bezier(0, 0, 1, 1);animation-timing-function: cubic-bezier(0, 0, 1, 1);}#el_yWLEkiOMXO{fill-rule: evenodd;-webkit-animation-fill-mode: backwards;animation-fill-mode: backwards;opacity: 1;-webkit-animation-name: kf_el_yWLEkiOMXO_an_CsM-mypF1;animation-name: kf_el_yWLEkiOMXO_an_CsM-mypF1;-webkit-animation-timing-function: cubic-bezier(0, 0, 1, 1);animation-timing-function: cubic-bezier(0, 0, 1, 1);}#el_1QlFYvHjBY{fill-rule: evenodd;-webkit-animation-fill-mode: backwards;animation-fill-mode: backwards;opacity: 1;-webkit-animation-name: kf_el_1QlFYvHjBY_an_C-yoELgd9;animation-name: kf_el_1QlFYvHjBY_an_C-yoELgd9;-webkit-animation-timing-function: cubic-bezier(0, 0, 1, 1);animation-timing-function: cubic-bezier(0, 0, 1, 1);}#el_CZ1GNvGb1f{fill-rule: evenodd;-webkit-animation-fill-mode: backwards;animation-fill-mode: backwards;opacity: 1;-webkit-animation-name: kf_el_CZ1GNvGb1f_an_Robq4XtlI;animation-name: kf_el_CZ1GNvGb1f_an_Robq4XtlI;-webkit-animation-timing-function: cubic-bezier(0, 0, 1, 1);animation-timing-function: cubic-bezier(0, 0, 1, 1);}#el_k3qS7Weagi{fill-rule: evenodd;}#el_8CM_F9S9Cl{fill-rule: evenodd;-webkit-animation-fill-mode: backwards;animation-fill-mode: backwards;opacity: 0;-webkit-animation-name: kf_el_8CM_F9S9Cl_an_VSWZpttbB;animation-name: kf_el_8CM_F9S9Cl_an_VSWZpttbB;-webkit-animation-timing-function: cubic-bezier(0, 0, 1, 1);animation-timing-function: cubic-bezier(0, 0, 1, 1);}#el_GT-t4Ib_WG{fill-rule: evenodd;}#el_rcUUtnv2rX{fill-rule: evenodd;fill: #252525;}#el_6NZUm6HHs4{fill-rule: evenodd;fill: #252525;}#el_oLi8xUazeu{fill-rule: evenodd;}#el_fQZTHAxlQ8{fill-rule: evenodd;}#el_ehZpOlALNH{fill-rule: evenodd;fill: #464646;}#el_mnrFtzgyuM{fill-rule: evenodd;fill: #362f2d;}#el_JAlN2vpFC0N{fill-rule: evenodd;fill: #362f2d;}#el_a4NWt72hGm_an_aqQGPTNgu{-webkit-animation-fill-mode: backwards;animation-fill-mode: backwards;-webkit-transform: translate(383.32464599609375px, 191.26849365234375px) rotate(0deg) translate(-383.32464599609375px, -191.26849365234375px);transform: translate(383.32464599609375px, 191.26849365234375px) rotate(0deg) translate(-383.32464599609375px, -191.26849365234375px);-webkit-animation-name: kf_el_a4NWt72hGm_an_aqQGPTNgu;animation-name: kf_el_a4NWt72hGm_an_aqQGPTNgu;-webkit-animation-timing-function: cubic-bezier(0, 0, 1, 1);animation-timing-function: cubic-bezier(0, 0, 1, 1);}#el_hmOP0U0F1l_an_wcAB_au8O{-webkit-animation-fill-mode: backwards;animation-fill-mode: backwards;-webkit-transform: translate(377.6642303466797px, 146.4940071105957px) rotate(0deg) translate(-377.6642303466797px, -146.4940071105957px);transform: translate(377.6642303466797px, 146.4940071105957px) rotate(0deg) translate(-377.6642303466797px, -146.4940071105957px);-webkit-animation-name: kf_el_hmOP0U0F1l_an_wcAB_au8O;animation-name: kf_el_hmOP0U0F1l_an_wcAB_au8O;-webkit-animation-timing-function: cubic-bezier(0, 0, 1, 1);animation-timing-function: cubic-bezier(0, 0, 1, 1);}#el_hmOP0U0F1l_an_qJLzzEUZV{-webkit-animation-fill-mode: backwards;animation-fill-mode: backwards;-webkit-transform: translate(377.6642303466797px, 146.4940071105957px) translate(-377.6642303466797px, -146.4940071105957px) translate(0px, 0px);transform: translate(377.6642303466797px, 146.4940071105957px) translate(-377.6642303466797px, -146.4940071105957px) translate(0px, 0px);-webkit-animation-name: kf_el_hmOP0U0F1l_an_qJLzzEUZV;animation-name: kf_el_hmOP0U0F1l_an_qJLzzEUZV;-webkit-animation-timing-function: cubic-bezier(0, 0, 1, 1);animation-timing-function: cubic-bezier(0, 0, 1, 1);}#el_yWLEkiOMXO_an_6-hrOyNCm{-webkit-animation-fill-mode: backwards;animation-fill-mode: backwards;-webkit-transform: translate(330.5679931640625px, 144.02999877929688px) rotate(0deg) translate(-330.5679931640625px, -144.02999877929688px);transform: translate(330.5679931640625px, 144.02999877929688px) rotate(0deg) translate(-330.5679931640625px, -144.02999877929688px);-webkit-animation-name: kf_el_yWLEkiOMXO_an_6-hrOyNCm;animation-name: kf_el_yWLEkiOMXO_an_6-hrOyNCm;-webkit-animation-timing-function: cubic-bezier(0, 0, 1, 1);animation-timing-function: cubic-bezier(0, 0, 1, 1);}#el_yWLEkiOMXO_an_kCtKh_Z9a{-webkit-animation-fill-mode: backwards;animation-fill-mode: backwards;-webkit-transform: translate(330.5679931640625px, 144.02999877929688px) translate(-330.5679931640625px, -144.02999877929688px) translate(0px, 0px);transform: translate(330.5679931640625px, 144.02999877929688px) translate(-330.5679931640625px, -144.02999877929688px) translate(0px, 0px);-webkit-animation-name: kf_el_yWLEkiOMXO_an_kCtKh_Z9a;animation-name: kf_el_yWLEkiOMXO_an_kCtKh_Z9a;-webkit-animation-timing-function: cubic-bezier(0, 0, 1, 1);animation-timing-function: cubic-bezier(0, 0, 1, 1);}#el_k3qS7Weagi_an_Lg3FsyIPC{-webkit-animation-fill-mode: backwards;animation-fill-mode: backwards;-webkit-transform: translate(431px, 152.57000732421875px) rotate(0deg) translate(-431px, -152.57000732421875px);transform: translate(431px, 152.57000732421875px) rotate(0deg) translate(-431px, -152.57000732421875px);-webkit-animation-name: kf_el_k3qS7Weagi_an_Lg3FsyIPC;animation-name: kf_el_k3qS7Weagi_an_Lg3FsyIPC;-webkit-animation-timing-function: cubic-bezier(0, 0, 1, 1);animation-timing-function: cubic-bezier(0, 0, 1, 1);}#el_8CM_F9S9Cl_an_Yy1FW3Vic{-webkit-animation-fill-mode: backwards;animation-fill-mode: backwards;-webkit-transform: translate(369px, 213px) rotate(0deg) translate(-369px, -213px);transform: translate(369px, 213px) rotate(0deg) translate(-369px, -213px);-webkit-animation-name: kf_el_8CM_F9S9Cl_an_Yy1FW3Vic;animation-name: kf_el_8CM_F9S9Cl_an_Yy1FW3Vic;-webkit-animation-timing-function: cubic-bezier(0, 0, 1, 1);animation-timing-function: cubic-bezier(0, 0, 1, 1);}</style>
  <defs>
    
  </defs>
  <g id="el_a4NWt72hGm_an_aqQGPTNgu" data-animator-group="true" data-animator-type="1"><path d="M285.809,111.168S295.885,250.83,400.9,271.369c0,0,81.177-18.9,79.926-156.915" id="el_a4NWt72hGm"/></g>
  <g id="el_hmOP0U0F1l_an_qJLzzEUZV" data-animator-group="true" data-animator-type="0"><g id="el_hmOP0U0F1l_an_wcAB_au8O" data-animator-group="true" data-animator-type="1"><path d="M358.542,109.525s-33.7,16.02-31.171,27.111-0.8-20.539-.8-20.539S294.419,123.08,293,141.565s0.8-27.111.8-27.111-25.786,13.556-24.777,32.04c0,0,1.931-104.746,58.346-115.837,0,0,70.8-32.451,115.093,6.572,0,0,50.405,28.754,43.16,91.191,0,0-1.179-18.895-16.784-21.36l-8.792,14.788s5.586-25.057-11.989-25.468c0,0,6.4,26.29-.8,34.5,0,0-14.83-39.023-29.573-27.111,0,0,6.355,29.986-2.4,29.576,0,0-16.075-34.916-32.77-31.219,0,0,4.7,22.182-9.591,29.575C372.929,131.706,369.319,109.525,358.542,109.525Z" id="el_hmOP0U0F1l"/></g></g>
  <path id="el_oFqYpyT8yY" d="M348.152,211.4s17.184,20.128,102.305,0c0,0-26.775,30.4-48.755,26.289C401.7,237.685,374.128,238.1,348.152,211.4Z"/>
  <g id="el_yWLEkiOMXO_an_kCtKh_Z9a" data-animator-group="true" data-animator-type="0"><g id="el_yWLEkiOMXO_an_6-hrOyNCm" data-animator-group="true" data-animator-type="1"><path d="M340.159,144.03c5.3,0,9.591,4.6,9.591,10.269s-4.294,10.269-9.591,10.269-9.591-4.6-9.591-10.269S334.862,144.03,340.159,144.03Z" id="el_yWLEkiOMXO"/></g></g>
  <path id="el_1QlFYvHjBY" data-name="Ellipse 1 copy" d="M440.866,144.03c5.3,0,9.591,4.6,9.591,10.269s-4.294,10.269-9.591,10.269-9.591-4.6-9.591-10.269S435.569,144.03,440.866,144.03Z"/>
  <path id="el_CZ1GNvGb1f" data-name="Shape 8 copy" d="M331,155s16-1.5,19,1C350,156,342.5,149,331,155Z"/>
  <g id="el_k3qS7Weagi_an_Lg3FsyIPC" data-animator-group="true" data-animator-type="1"><path d="M431,155s16-1.5,19,1C450,156,442.5,149,431,155Z" id="el_k3qS7Weagi"/></g>
  <g id="el_8CM_F9S9Cl_an_Yy1FW3Vic" data-animator-group="true" data-animator-type="1"><path d="M369,237s45-.5,67-16m-5-8s2.5,12.5,9,16" id="el_8CM_F9S9Cl"/></g>
  <path d="M375.327,263.153s5.594,31.219,29.572,48.471c0,0,32.77-41.9,21.58-51.757,0,0,75.93,11.5,78.328,57.508S511.2,418.424,511.2,418.424l-198.217,4.93s-3.2-110.908,2.4-123.232S352.947,258.224,375.327,263.153Z" id="el_GT-t4Ib_WG"/>
  <path d="M344.155,421.711s-2.664-102.145,1.6-107.622c0,0-2.664,87.357,0,107.622h-1.6Z" id="el_rcUUtnv2rX"/>
  <path id="el_6NZUm6HHs4" data-name="Shape 5 copy" d="M489.646,418.349s-1.959-102.161-6.419-107.432c0,0,6.561,87.139,4.838,107.507Z"/>
  <path d="M328.969,420.889c7.063,0,12.789,6.069,12.789,13.556S336.032,448,328.969,448s-12.788-6.069-12.788-13.555S321.907,420.889,328.969,420.889Z" id="el_oLi8xUazeu"/>
  <path id="el_fQZTHAxlQ8" data-name="Ellipse 2 copy" d="M499.212,416.781c7.063,0,12.788,6.069,12.788,13.556s-5.725,13.555-12.788,13.555-12.788-6.069-12.788-13.555S492.149,416.781,499.212,416.781Z"/>
  <path d="M345,421l141-2s5,112-2,147l-40,3s-18-109-32-111c0,0-38,38-33,113l-41-5S334,511,345,421Z" id="el_ehZpOlALNH"/>
  <path d="M344,567l-2,10s-17-3-15,6c0,0-6,2-1,12h50l-2-25Z" id="el_mnrFtzgyuM"/>
  <path id="el_JAlN2vpFC0N" data-name="Shape 7 copy" d="M478,565l2,10s17-3,15,6c0,0,6,2,1,12H446l2-25Z"/>
</svg>